﻿Frequency,Gain_dB
1,-18.5
2,-13
3,-9.8
4,-7.8
5,-6.3
6,-5.3
7,-4.4
8,-3.8
9,-3.2
10,-2.9
11,-2.5
12,-2.2
13,-2
14,-1.8
15,-1.6
16,-1.5
17,-1.3
18,-1.2
19,-1.1
20,-1.1
40,-0.4
60,-0.2
100,-0.1
1000,0
10000,0
20000,0
21000,-0.315504101
22000,-1.469093047
23000,-3.568788604
23500,-5.060684785
23750,-5.920302206
