0.24,-20.043214
0.34,-17.092411
0.48,-14.149733
0.68,-11.400202
0.96,-8.60338
1.4,-6.196811
1.9,-4.086639
2.7,-2.868836
3.8,-1.4321
5.4,-0.995789
7.7,-0.404664
100,0
250,0
1000,0
3000,0
6000,0
10000,0
13000,0
14000,0
14200,0
15000,0
15100,-0.000639
15200,-0.001279
29000,-0.090027
30000,-0.096494
30200,-0.097788
30500,-0.099729
30600,-0.100376
30700,-0.101023
35000,-0.128898
50000,-0.226843
60000,-0.292759
61000,-0.308549
62000,-0.324369
62200,-0.327536
62500,-0.332289
62600,-0.333874
62700,-0.33546
80000,-0.614158
100000,-0.947909
125000,-1.668202
126200,-4.704325
126800,-23.055776
126900,50
127000,50
